…
37.7% of station entrances / exits without vending allow entrance.

Then reformat the dataset.

``` r
NYC_subway_data = mutate(NYC_subway_data, route_number = rowSums(!is.na(select(NYC_subway_data, route1:route11)))) %>%
  unite(route_name, route1:route11, sep='/', remove = TRUE) %>%
  select(line:station_longitude, route_number, route_name, everything())

NYC_subway_data$route_name = gsub("/NA","",NYC_subway_data$route_name)

NYC_subway_data
```

    ## # A tibble: 1,868 x 10
    ##    line  station_name station_latitude station_longitu~ route_number
    ##    <chr> <chr>                   <dbl>            <dbl>        <dbl>
    ##  1 4 Av~ 25th St                  40.7            -74.0            1
    ##  2 4 Av~ 25th St                  40.7            -74.0            1
    ##  3 4 Av~ 36th St                  40.7            -74.0            2
    ##  4 4 Av~ 36th St                  40.7            -74.0            2
    ##  5 4 Av~ 36th St                  40.7            -74.0            2
    ##  6 4 Av~ 45th St                  40.6            -74.0            1
    ##  7 4 Av~ 45th St                  40.6            -74.0            1
    ##  8 4 Av~ 45th St                  40.6            -74.0            1
    ##  9 4 Av~ 45th St                  40.6            -74.0            1
    ## 10 4 Av~ 53rd St                  40.6            -74.0            1
    ## # ... with 1,858 more rows, and 5 more variables: route_name <chr>,
    ## #   entrance_type <chr>, entry <lgl>, vending <chr>, ada <lgl>
…
Problem 2
---------

First, read and clean the data as required.

``` r
trash_wheel_data = read_excel("./data/HealthyHarborWaterWheelTotals2017-9-26.xlsx", range = cell_cols("A:N")) %>%
  janitor::clean_names() %>%
  filter(!is.na(dumpster)) %>%
  mutate(sports_balls=as.integer(round(sports_balls)))

trash_wheel_data
```

    ## # A tibble: 216 x 14
    ##    dumpster month  year date                weight_tons volume_cubic_ya~
    ##       <dbl> <chr> <dbl> <dttm>                    <dbl>            <dbl>
    ##  1        1 May    2014 2014-05-16 00:00:00        4.31               18
    ##  2        2 May    2014 2014-05-16 00:00:00        2.74               13
    ##  3        3 May    2014 2014-05-16 00:00:00        3.45               15
    ##  4        4 May    2014 2014-05-17 00:00:00        3.1                15
    ##  5        5 May    2014 2014-05-17 00:00:00        4.06               18
    ##  6        6 May    2014 2014-05-20 00:00:00        2.71               13
    ##  7        7 May    2014 2014-05-21 00:00:00        1.91                8
    ##  8        8 May    2014 2014-05-28 00:00:00        3.7                16
    ##  9        9 June   2014 2014-06-05 00:00:00        2.52               14
    ## 10       10 June   2014 2014-06-11 00:00:00        3.76               18
    ## # ... with 206 more rows, and 8 more variables: plastic_bottles <dbl>,
    ## #   polystyrene <dbl>, cigarette_butts <dbl>, glass_bottles <dbl>,
    ## #   grocery_bags <dbl>, chip_bags <dbl>, sports_balls <int>,
    ## #   homes_powered <dbl>
